(['C:\\Users\\MSI\\project\\projectPG\\main.py'],
 ['C:\\Users\\MSI\\project\\projectPG', 'C:\\Users\\MSI\\project\\projectPG'],
 ['codecs'],
 [],
 [],
 [],
 False,
 False,
 '3.6.6 (v3.6.6:4cf1f54eb7, Jun 27 2018, 02:47:15) [MSC v.1900 32 bit (Intel)]',
 [('pyi_rth_pkgres',
   'c:\\users\\msi\\appdata\\local\\programs\\python\\python36-32\\lib\\site-packages\\PyInstaller\\loader\\rthooks\\pyi_rth_pkgres.py',
   'PYSOURCE'),
  ('pyi_rth_win32comgenpy',
   'c:\\users\\msi\\appdata\\local\\programs\\python\\python36-32\\lib\\site-packages\\PyInstaller\\loader\\rthooks\\pyi_rth_win32comgenpy.py',
   'PYSOURCE'),
  ('pyi_rth_multiprocessing',
   'c:\\users\\msi\\appdata\\local\\programs\\python\\python36-32\\lib\\site-packages\\PyInstaller\\loader\\rthooks\\pyi_rth_multiprocessing.py',
   'PYSOURCE'),
  ('main', 'C:\\Users\\MSI\\project\\projectPG\\main.py', 'PYSOURCE')],
 [('multiprocessing.popen_fork',
   'c:\\users\\msi\\appdata\\local\\programs\\python\\python36-32\\lib\\multiprocessing\\popen_fork.py',
   'PYMODULE'),
  ('multiprocessing.connection',
   'c:\\users\\msi\\appdata\\local\\programs\\python\\python36-32\\lib\\multiprocessing\\connection.py',
   'PYMODULE'),
  ('multiprocessing.resource_sharer',
   'c:\\users\\msi\\appdata\\local\\programs\\python\\python36-32\\lib\\multiprocessing\\resource_sharer.py',
   'PYMODULE'),
  ('multiprocessing.process',
   'c:\\users\\msi\\appdata\\local\\programs\\python\\python36-32\\lib\\multiprocessing\\process.py',
   'PYMODULE'),
  ('xmlrpc.client',
   'c:\\users\\msi\\appdata\\local\\programs\\python\\python36-32\\lib\\xmlrpc\\client.py',
   'PYMODULE'),
  ('xmlrpc',
   'c:\\users\\msi\\appdata\\local\\programs\\python\\python36-32\\lib\\xmlrpc\\__init__.py',
   'PYMODULE'),
  ('decimal',
   'c:\\users\\msi\\appdata\\local\\programs\\python\\python36-32\\lib\\decimal.py',
   'PYMODULE'),
  ('_pydecimal',
   'c:\\users\\msi\\appdata\\local\\programs\\python\\python36-32\\lib\\_pydecimal.py',
   'PYMODULE'),
  ('numbers',
   'c:\\users\\msi\\appdata\\local\\programs\\python\\python36-32\\lib\\numbers.py',
   'PYMODULE'),
  ('hmac',
   'c:\\users\\msi\\appdata\\local\\programs\\python\\python36-32\\lib\\hmac.py',
   'PYMODULE'),
  ('multiprocessing.context',
   'c:\\users\\msi\\appdata\\local\\programs\\python\\python36-32\\lib\\multiprocessing\\context.py',
   'PYMODULE'),
  ('multiprocessing.popen_forkserver',
   'c:\\users\\msi\\appdata\\local\\programs\\python\\python36-32\\lib\\multiprocessing\\popen_forkserver.py',
   'PYMODULE'),
  ('multiprocessing.popen_spawn_posix',
   'c:\\users\\msi\\appdata\\local\\programs\\python\\python36-32\\lib\\multiprocessing\\popen_spawn_posix.py',
   'PYMODULE'),
  ('multiprocessing.semaphore_tracker',
   'c:\\users\\msi\\appdata\\local\\programs\\python\\python36-32\\lib\\multiprocessing\\semaphore_tracker.py',
   'PYMODULE'),
  ('multiprocessing.forkserver',
   'c:\\users\\msi\\appdata\\local\\programs\\python\\python36-32\\lib\\multiprocessing\\forkserver.py',
   'PYMODULE'),
  ('multiprocessing.sharedctypes',
   'c:\\users\\msi\\appdata\\local\\programs\\python\\python36-32\\lib\\multiprocessing\\sharedctypes.py',
   'PYMODULE'),
  ('multiprocessing.heap',
   'c:\\users\\msi\\appdata\\local\\programs\\python\\python36-32\\lib\\multiprocessing\\heap.py',
   'PYMODULE'),
  ('ctypes',
   'c:\\users\\msi\\appdata\\local\\programs\\python\\python36-32\\lib\\ctypes\\__init__.py',
   'PYMODULE'),
  ('ctypes._endian',
   'c:\\users\\msi\\appdata\\local\\programs\\python\\python36-32\\lib\\ctypes\\_endian.py',
   'PYMODULE'),
  ('multiprocessing.pool',
   'c:\\users\\msi\\appdata\\local\\programs\\python\\python36-32\\lib\\multiprocessing\\pool.py',
   'PYMODULE'),
  ('multiprocessing.dummy',
   'c:\\users\\msi\\appdata\\local\\programs\\python\\python36-32\\lib\\multiprocessing\\dummy\\__init__.py',
   'PYMODULE'),
  ('multiprocessing.dummy.connection',
   'c:\\users\\msi\\appdata\\local\\programs\\python\\python36-32\\lib\\multiprocessing\\dummy\\connection.py',
   'PYMODULE'),
  ('queue',
   'c:\\users\\msi\\appdata\\local\\programs\\python\\python36-32\\lib\\queue.py',
   'PYMODULE'),
  ('multiprocessing.queues',
   'c:\\users\\msi\\appdata\\local\\programs\\python\\python36-32\\lib\\multiprocessing\\queues.py',
   'PYMODULE'),
  ('multiprocessing.synchronize',
   'c:\\users\\msi\\appdata\\local\\programs\\python\\python36-32\\lib\\multiprocessing\\synchronize.py',
   'PYMODULE'),
  ('multiprocessing.managers',
   'c:\\users\\msi\\appdata\\local\\programs\\python\\python36-32\\lib\\multiprocessing\\managers.py',
   'PYMODULE'),
  ('multiprocessing.reduction',
   'c:\\users\\msi\\appdata\\local\\programs\\python\\python36-32\\lib\\multiprocessing\\reduction.py',
   'PYMODULE'),
  ('multiprocessing.util',
   'c:\\users\\msi\\appdata\\local\\programs\\python\\python36-32\\lib\\multiprocessing\\util.py',
   'PYMODULE'),
  ('multiprocessing.popen_spawn_win32',
   'c:\\users\\msi\\appdata\\local\\programs\\python\\python36-32\\lib\\multiprocessing\\popen_spawn_win32.py',
   'PYMODULE'),
  ('multiprocessing.spawn',
   'c:\\users\\msi\\appdata\\local\\programs\\python\\python36-32\\lib\\multiprocessing\\spawn.py',
   'PYMODULE'),
  ('runpy',
   'c:\\users\\msi\\appdata\\local\\programs\\python\\python36-32\\lib\\runpy.py',
   'PYMODULE'),
  ('multiprocessing',
   'c:\\users\\msi\\appdata\\local\\programs\\python\\python36-32\\lib\\multiprocessing\\__init__.py',
   'PYMODULE'),
  ('win32com',
   'c:\\users\\msi\\appdata\\local\\programs\\python\\python36-32\\lib\\site-packages\\win32com\\__init__.py',
   'PYMODULE'),
  ('win32com.server.util',
   'c:\\users\\msi\\appdata\\local\\programs\\python\\python36-32\\lib\\site-packages\\win32com\\server\\util.py',
   'PYMODULE'),
  ('win32com.server.dispatcher',
   'c:\\users\\msi\\appdata\\local\\programs\\python\\python36-32\\lib\\site-packages\\win32com\\server\\dispatcher.py',
   'PYMODULE'),
  ('win32traceutil',
   'c:\\users\\msi\\appdata\\local\\programs\\python\\python36-32\\lib\\site-packages\\win32\\lib\\win32traceutil.py',
   'PYMODULE'),
  ('win32com.util',
   'c:\\users\\msi\\appdata\\local\\programs\\python\\python36-32\\lib\\site-packages\\win32com\\util.py',
   'PYMODULE'),
  ('win32con',
   'c:\\users\\msi\\appdata\\local\\programs\\python\\python36-32\\lib\\site-packages\\win32\\lib\\win32con.py',
   'PYMODULE'),
  ('win32com.server.exception',
   'c:\\users\\msi\\appdata\\local\\programs\\python\\python36-32\\lib\\site-packages\\win32com\\server\\exception.py',
   'PYMODULE'),
  ('winerror',
   'c:\\users\\msi\\appdata\\local\\programs\\python\\python36-32\\lib\\site-packages\\win32\\lib\\winerror.py',
   'PYMODULE'),
  ('win32com.server.policy',
   'c:\\users\\msi\\appdata\\local\\programs\\python\\python36-32\\lib\\site-packages\\win32com\\server\\policy.py',
   'PYMODULE'),
  ('win32com.client',
   'c:\\users\\msi\\appdata\\local\\programs\\python\\python36-32\\lib\\site-packages\\win32com\\client\\__init__.py',
   'PYMODULE'),
  ('win32com.client.makepy',
   'c:\\users\\msi\\appdata\\local\\programs\\python\\python36-32\\lib\\site-packages\\win32com\\client\\makepy.py',
   'PYMODULE'),
  ('pywin.dialogs.status',
   'c:\\users\\msi\\appdata\\local\\programs\\python\\python36-32\\lib\\site-packages\\Pythonwin\\pywin\\dialogs\\status.py',
   'PYMODULE'),
  ('pywin.mfc.thread',
   'c:\\users\\msi\\appdata\\local\\programs\\python\\python36-32\\lib\\site-packages\\Pythonwin\\pywin\\mfc\\thread.py',
   'PYMODULE'),
  ('pywin.mfc.object',
   'c:\\users\\msi\\appdata\\local\\programs\\python\\python36-32\\lib\\site-packages\\Pythonwin\\pywin\\mfc\\object.py',
   'PYMODULE'),
  ('pywin.mfc.dialog',
   'c:\\users\\msi\\appdata\\local\\programs\\python\\python36-32\\lib\\site-packages\\Pythonwin\\pywin\\mfc\\dialog.py',
   'PYMODULE'),
  ('pywin.mfc.window',
   'c:\\users\\msi\\appdata\\local\\programs\\python\\python36-32\\lib\\site-packages\\Pythonwin\\pywin\\mfc\\window.py',
   'PYMODULE'),
  ('pywin.mfc',
   'c:\\users\\msi\\appdata\\local\\programs\\python\\python36-32\\lib\\site-packages\\Pythonwin\\pywin\\mfc\\__init__.py',
   'PYMODULE'),
  ('pywin.dialogs',
   'c:\\users\\msi\\appdata\\local\\programs\\python\\python36-32\\lib\\site-packages\\Pythonwin\\pywin\\dialogs\\__init__.py',
   'PYMODULE'),
  ('pywin',
   'c:\\users\\msi\\appdata\\local\\programs\\python\\python36-32\\lib\\site-packages\\Pythonwin\\pywin\\__init__.py',
   'PYMODULE'),
  ('win32com.client.gencache',
   'c:\\users\\msi\\appdata\\local\\programs\\python\\python36-32\\lib\\site-packages\\win32com\\client\\gencache.py',
   'PYMODULE'),
  ('win32com.client.selecttlb',
   'c:\\users\\msi\\appdata\\local\\programs\\python\\python36-32\\lib\\site-packages\\win32com\\client\\selecttlb.py',
   'PYMODULE'),
  ('pywin.dialogs.list',
   'c:\\users\\msi\\appdata\\local\\programs\\python\\python36-32\\lib\\site-packages\\Pythonwin\\pywin\\dialogs\\list.py',
   'PYMODULE'),
  ('commctrl',
   'c:\\users\\msi\\appdata\\local\\programs\\python\\python36-32\\lib\\site-packages\\win32\\lib\\commctrl.py',
   'PYMODULE'),
  ('win32com.client.genpy',
   'c:\\users\\msi\\appdata\\local\\programs\\python\\python36-32\\lib\\site-packages\\win32com\\client\\genpy.py',
   'PYMODULE'),
  ('win32com.client.CLSIDToClass',
   'c:\\users\\msi\\appdata\\local\\programs\\python\\python36-32\\lib\\site-packages\\win32com\\client\\CLSIDToClass.py',
   'PYMODULE'),
  ('win32com.client.dynamic',
   'c:\\users\\msi\\appdata\\local\\programs\\python\\python36-32\\lib\\site-packages\\win32com\\client\\dynamic.py',
   'PYMODULE'),
  ('win32com.client.build',
   'c:\\users\\msi\\appdata\\local\\programs\\python\\python36-32\\lib\\site-packages\\win32com\\client\\build.py',
   'PYMODULE'),
  ('pywintypes',
   'c:\\users\\msi\\appdata\\local\\programs\\python\\python36-32\\lib\\site-packages\\win32\\lib\\pywintypes.py',
   'PYMODULE'),
  ('distutils.sysconfig',
   'c:\\users\\msi\\appdata\\local\\programs\\python\\python36-32\\lib\\distutils\\sysconfig.py',
   'PYMODULE'),
  ('distutils',
   'c:\\users\\msi\\appdata\\local\\programs\\python\\python36-32\\lib\\distutils\\__init__.py',
   'PYMODULE'),
  ('distutils.log',
   'c:\\users\\msi\\appdata\\local\\programs\\python\\python36-32\\lib\\distutils\\log.py',
   'PYMODULE'),
  ('distutils.text_file',
   'c:\\users\\msi\\appdata\\local\\programs\\python\\python36-32\\lib\\distutils\\text_file.py',
   'PYMODULE'),
  ('_osx_support',
   'c:\\users\\msi\\appdata\\local\\programs\\python\\python36-32\\lib\\_osx_support.py',
   'PYMODULE'),
  ('distutils.errors',
   'c:\\users\\msi\\appdata\\local\\programs\\python\\python36-32\\lib\\distutils\\errors.py',
   'PYMODULE'),
  ('win32com.server',
   'c:\\users\\msi\\appdata\\local\\programs\\python\\python36-32\\lib\\site-packages\\win32com\\server\\__init__.py',
   'PYMODULE'),
  ('win32com.universal',
   'c:\\users\\msi\\appdata\\local\\programs\\python\\python36-32\\lib\\site-packages\\win32com\\universal.py',
   'PYMODULE'),
  ('win32com.client.util',
   'c:\\users\\msi\\appdata\\local\\programs\\python\\python36-32\\lib\\site-packages\\win32com\\client\\util.py',
   'PYMODULE'),
  ('imp',
   'c:\\users\\msi\\appdata\\local\\programs\\python\\python36-32\\lib\\imp.py',
   'PYMODULE'),
  ('pythoncom',
   'c:\\users\\msi\\appdata\\local\\programs\\python\\python36-32\\lib\\site-packages\\pythoncom.py',
   'PYMODULE'),
  ('pkg_resources',
   'c:\\users\\msi\\appdata\\local\\programs\\python\\python36-32\\lib\\site-packages\\pkg_resources\\__init__.py',
   'PYMODULE'),
  ('pkg_resources._vendor.packaging._compat',
   'c:\\users\\msi\\appdata\\local\\programs\\python\\python36-32\\lib\\site-packages\\pkg_resources\\_vendor\\packaging\\_compat.py',
   'PYMODULE'),
  ('pkg_resources._vendor.packaging.specifiers',
   'c:\\users\\msi\\appdata\\local\\programs\\python\\python36-32\\lib\\site-packages\\pkg_resources\\_vendor\\packaging\\specifiers.py',
   'PYMODULE'),
  ('pkg_resources._vendor.pyparsing',
   'c:\\users\\msi\\appdata\\local\\programs\\python\\python36-32\\lib\\site-packages\\pkg_resources\\_vendor\\pyparsing.py',
   'PYMODULE'),
  ('uuid',
   'c:\\users\\msi\\appdata\\local\\programs\\python\\python36-32\\lib\\uuid.py',
   'PYMODULE'),
  ('ctypes.util',
   'c:\\users\\msi\\appdata\\local\\programs\\python\\python36-32\\lib\\ctypes\\util.py',
   'PYMODULE'),
  ('ctypes.macholib.dyld',
   'c:\\users\\msi\\appdata\\local\\programs\\python\\python36-32\\lib\\ctypes\\macholib\\dyld.py',
   'PYMODULE'),
  ('ctypes.macholib',
   'c:\\users\\msi\\appdata\\local\\programs\\python\\python36-32\\lib\\ctypes\\macholib\\__init__.py',
   'PYMODULE'),
  ('ctypes.macholib.dylib',
   'c:\\users\\msi\\appdata\\local\\programs\\python\\python36-32\\lib\\ctypes\\macholib\\dylib.py',
   'PYMODULE'),
  ('ctypes.macholib.framework',
   'c:\\users\\msi\\appdata\\local\\programs\\python\\python36-32\\lib\\ctypes\\macholib\\framework.py',
   'PYMODULE'),
  ('netbios',
   'c:\\users\\msi\\appdata\\local\\programs\\python\\python36-32\\lib\\site-packages\\win32\\lib\\netbios.py',
   'PYMODULE'),
  ('pkg_resources._vendor',
   'c:\\users\\msi\\appdata\\local\\programs\\python\\python36-32\\lib\\site-packages\\pkg_resources\\_vendor\\__init__.py',
   'PYMODULE'),
  ('pkg_resources._vendor.packaging.requirements',
   'c:\\users\\msi\\appdata\\local\\programs\\python\\python36-32\\lib\\site-packages\\pkg_resources\\_vendor\\packaging\\requirements.py',
   'PYMODULE'),
  ('pkg_resources._vendor.packaging.utils',
   'c:\\users\\msi\\appdata\\local\\programs\\python\\python36-32\\lib\\site-packages\\pkg_resources\\_vendor\\packaging\\utils.py',
   'PYMODULE'),
  ('pkg_resources._vendor.packaging.version',
   'c:\\users\\msi\\appdata\\local\\programs\\python\\python36-32\\lib\\site-packages\\pkg_resources\\_vendor\\packaging\\version.py',
   'PYMODULE'),
  ('pkg_resources._vendor.packaging',
   'c:\\users\\msi\\appdata\\local\\programs\\python\\python36-32\\lib\\site-packages\\pkg_resources\\_vendor\\packaging\\__init__.py',
   'PYMODULE'),
  ('pkg_resources._vendor.packaging.__about__',
   'c:\\users\\msi\\appdata\\local\\programs\\python\\python36-32\\lib\\site-packages\\pkg_resources\\_vendor\\packaging\\__about__.py',
   'PYMODULE'),
  ('pkg_resources._vendor.six',
   'c:\\users\\msi\\appdata\\local\\programs\\python\\python36-32\\lib\\site-packages\\pkg_resources\\_vendor\\six.py',
   'PYMODULE'),
  ('pkg_resources._vendor.packaging.markers',
   'c:\\users\\msi\\appdata\\local\\programs\\python\\python36-32\\lib\\site-packages\\pkg_resources\\_vendor\\packaging\\markers.py',
   'PYMODULE'),
  ('pkg_resources._vendor.packaging._structures',
   'c:\\users\\msi\\appdata\\local\\programs\\python\\python36-32\\lib\\site-packages\\pkg_resources\\_vendor\\packaging\\_structures.py',
   'PYMODULE'),
  ('pkg_resources._vendor.appdirs',
   'c:\\users\\msi\\appdata\\local\\programs\\python\\python36-32\\lib\\site-packages\\pkg_resources\\_vendor\\appdirs.py',
   'PYMODULE'),
  ('win32com.shell.shellcon',
   'c:\\users\\msi\\appdata\\local\\programs\\python\\python36-32\\lib\\site-packages\\win32comext\\shell\\shellcon.py',
   'PYMODULE'),
  ('win32com.shell',
   'c:\\users\\msi\\appdata\\local\\programs\\python\\python36-32\\lib\\site-packages\\win32comext\\shell\\__init__.py',
   'PYMODULE'),
  ('distutils.util',
   'c:\\users\\msi\\appdata\\local\\programs\\python\\python36-32\\lib\\distutils\\util.py',
   'PYMODULE'),
  ('distutils.filelist',
   'c:\\users\\msi\\appdata\\local\\programs\\python\\python36-32\\lib\\distutils\\filelist.py',
   'PYMODULE'),
  ('distutils.debug',
   'c:\\users\\msi\\appdata\\local\\programs\\python\\python36-32\\lib\\distutils\\debug.py',
   'PYMODULE'),
  ('distutils.file_util',
   'c:\\users\\msi\\appdata\\local\\programs\\python\\python36-32\\lib\\distutils\\file_util.py',
   'PYMODULE'),
  ('distutils.dir_util',
   'c:\\users\\msi\\appdata\\local\\programs\\python\\python36-32\\lib\\distutils\\dir_util.py',
   'PYMODULE'),
  ('lib2to3.refactor',
   'c:\\users\\msi\\appdata\\local\\programs\\python\\python36-32\\lib\\lib2to3\\refactor.py',
   'PYMODULE'),
  ('lib2to3.btm_matcher',
   'c:\\users\\msi\\appdata\\local\\programs\\python\\python36-32\\lib\\lib2to3\\btm_matcher.py',
   'PYMODULE'),
  ('lib2to3.btm_utils',
   'c:\\users\\msi\\appdata\\local\\programs\\python\\python36-32\\lib\\lib2to3\\btm_utils.py',
   'PYMODULE'),
  ('lib2to3.pgen2.grammar',
   'c:\\users\\msi\\appdata\\local\\programs\\python\\python36-32\\lib\\lib2to3\\pgen2\\grammar.py',
   'PYMODULE'),
  ('lib2to3.pygram',
   'c:\\users\\msi\\appdata\\local\\programs\\python\\python36-32\\lib\\lib2to3\\pygram.py',
   'PYMODULE'),
  ('lib2to3.pytree',
   'c:\\users\\msi\\appdata\\local\\programs\\python\\python36-32\\lib\\lib2to3\\pytree.py',
   'PYMODULE'),
  ('lib2to3',
   'c:\\users\\msi\\appdata\\local\\programs\\python\\python36-32\\lib\\lib2to3\\__init__.py',
   'PYMODULE'),
  ('lib2to3.patcomp',
   'c:\\users\\msi\\appdata\\local\\programs\\python\\python36-32\\lib\\lib2to3\\patcomp.py',
   'PYMODULE'),
  ('lib2to3.pgen2.parse',
   'c:\\users\\msi\\appdata\\local\\programs\\python\\python36-32\\lib\\lib2to3\\pgen2\\parse.py',
   'PYMODULE'),
  ('lib2to3.pgen2.literals',
   'c:\\users\\msi\\appdata\\local\\programs\\python\\python36-32\\lib\\lib2to3\\pgen2\\literals.py',
   'PYMODULE'),
  ('lib2to3.fixer_util',
   'c:\\users\\msi\\appdata\\local\\programs\\python\\python36-32\\lib\\lib2to3\\fixer_util.py',
   'PYMODULE'),
  ('lib2to3.pgen2.token',
   'c:\\users\\msi\\appdata\\local\\programs\\python\\python36-32\\lib\\lib2to3\\pgen2\\token.py',
   'PYMODULE'),
  ('lib2to3.pgen2.tokenize',
   'c:\\users\\msi\\appdata\\local\\programs\\python\\python36-32\\lib\\lib2to3\\pgen2\\tokenize.py',
   'PYMODULE'),
  ('lib2to3.pgen2.driver',
   'c:\\users\\msi\\appdata\\local\\programs\\python\\python36-32\\lib\\lib2to3\\pgen2\\driver.py',
   'PYMODULE'),
  ('lib2to3.pgen2.pgen',
   'c:\\users\\msi\\appdata\\local\\programs\\python\\python36-32\\lib\\lib2to3\\pgen2\\pgen.py',
   'PYMODULE'),
  ('lib2to3.pgen2',
   'c:\\users\\msi\\appdata\\local\\programs\\python\\python36-32\\lib\\lib2to3\\pgen2\\__init__.py',
   'PYMODULE'),
  ('distutils.spawn',
   'c:\\users\\msi\\appdata\\local\\programs\\python\\python36-32\\lib\\distutils\\spawn.py',
   'PYMODULE'),
  ('distutils.dep_util',
   'c:\\users\\msi\\appdata\\local\\programs\\python\\python36-32\\lib\\distutils\\dep_util.py',
   'PYMODULE'),
  ('sysconfig',
   'c:\\users\\msi\\appdata\\local\\programs\\python\\python36-32\\lib\\sysconfig.py',
   'PYMODULE'),
  ('pkg_resources.py31compat',
   'c:\\users\\msi\\appdata\\local\\programs\\python\\python36-32\\lib\\site-packages\\pkg_resources\\py31compat.py',
   'PYMODULE'),
  ('pkg_resources.extern',
   'c:\\users\\msi\\appdata\\local\\programs\\python\\python36-32\\lib\\site-packages\\pkg_resources\\extern\\__init__.py',
   'PYMODULE'),
  ('_strptime',
   'c:\\users\\msi\\appdata\\local\\programs\\python\\python36-32\\lib\\_strptime.py',
   'PYMODULE'),
  ('datetime',
   'c:\\users\\msi\\appdata\\local\\programs\\python\\python36-32\\lib\\datetime.py',
   'PYMODULE'),
  ('ntpath',
   'c:\\users\\msi\\appdata\\local\\programs\\python\\python36-32\\lib\\ntpath.py',
   'PYMODULE'),
  ('stat',
   'c:\\users\\msi\\appdata\\local\\programs\\python\\python36-32\\lib\\stat.py',
   'PYMODULE'),
  ('genericpath',
   'c:\\users\\msi\\appdata\\local\\programs\\python\\python36-32\\lib\\genericpath.py',
   'PYMODULE'),
  ('posixpath',
   'c:\\users\\msi\\appdata\\local\\programs\\python\\python36-32\\lib\\posixpath.py',
   'PYMODULE'),
  ('fnmatch',
   'c:\\users\\msi\\appdata\\local\\programs\\python\\python36-32\\lib\\fnmatch.py',
   'PYMODULE'),
  ('_compat_pickle',
   'c:\\users\\msi\\appdata\\local\\programs\\python\\python36-32\\lib\\_compat_pickle.py',
   'PYMODULE'),
  ('__future__',
   'c:\\users\\msi\\appdata\\local\\programs\\python\\python36-32\\lib\\__future__.py',
   'PYMODULE'),
  ('difflib',
   'c:\\users\\msi\\appdata\\local\\programs\\python\\python36-32\\lib\\difflib.py',
   'PYMODULE'),
  ('ast',
   'c:\\users\\msi\\appdata\\local\\programs\\python\\python36-32\\lib\\ast.py',
   'PYMODULE'),
  ('inspect',
   'c:\\users\\msi\\appdata\\local\\programs\\python\\python36-32\\lib\\inspect.py',
   'PYMODULE'),
  ('cmd',
   'c:\\users\\msi\\appdata\\local\\programs\\python\\python36-32\\lib\\cmd.py',
   'PYMODULE'),
  ('bdb',
   'c:\\users\\msi\\appdata\\local\\programs\\python\\python36-32\\lib\\bdb.py',
   'PYMODULE'),
  ('opcode',
   'c:\\users\\msi\\appdata\\local\\programs\\python\\python36-32\\lib\\opcode.py',
   'PYMODULE'),
  ('dis',
   'c:\\users\\msi\\appdata\\local\\programs\\python\\python36-32\\lib\\dis.py',
   'PYMODULE'),
  ('codeop',
   'c:\\users\\msi\\appdata\\local\\programs\\python\\python36-32\\lib\\codeop.py',
   'PYMODULE'),
  ('code',
   'c:\\users\\msi\\appdata\\local\\programs\\python\\python36-32\\lib\\code.py',
   'PYMODULE'),
  ('glob',
   'c:\\users\\msi\\appdata\\local\\programs\\python\\python36-32\\lib\\glob.py',
   'PYMODULE'),
  ('shlex',
   'c:\\users\\msi\\appdata\\local\\programs\\python\\python36-32\\lib\\shlex.py',
   'PYMODULE'),
  ('importlib._bootstrap',
   'c:\\users\\msi\\appdata\\local\\programs\\python\\python36-32\\lib\\importlib\\_bootstrap.py',
   'PYMODULE'),
  ('importlib._bootstrap_external',
   'c:\\users\\msi\\appdata\\local\\programs\\python\\python36-32\\lib\\importlib\\_bootstrap_external.py',
   'PYMODULE'),
  ('importlib.machinery',
   'c:\\users\\msi\\appdata\\local\\programs\\python\\python36-32\\lib\\importlib\\machinery.py',
   'PYMODULE'),
  ('importlib.util',
   'c:\\users\\msi\\appdata\\local\\programs\\python\\python36-32\\lib\\importlib\\util.py',
   'PYMODULE'),
  ('importlib.abc',
   'c:\\users\\msi\\appdata\\local\\programs\\python\\python36-32\\lib\\importlib\\abc.py',
   'PYMODULE'),
  ('importlib',
   'c:\\users\\msi\\appdata\\local\\programs\\python\\python36-32\\lib\\importlib\\__init__.py',
   'PYMODULE'),
  ('pkgutil',
   'c:\\users\\msi\\appdata\\local\\programs\\python\\python36-32\\lib\\pkgutil.py',
   'PYMODULE'),
  ('xml',
   'c:\\users\\msi\\appdata\\local\\programs\\python\\python36-32\\lib\\xml\\__init__.py',
   'PYMODULE'),
  ('xml.sax.expatreader',
   'c:\\users\\msi\\appdata\\local\\programs\\python\\python36-32\\lib\\xml\\sax\\expatreader.py',
   'PYMODULE'),
  ('xml.sax.saxutils',
   'c:\\users\\msi\\appdata\\local\\programs\\python\\python36-32\\lib\\xml\\sax\\saxutils.py',
   'PYMODULE'),
  ('urllib.request',
   'c:\\users\\msi\\appdata\\local\\programs\\python\\python36-32\\lib\\urllib\\request.py',
   'PYMODULE'),
  ('getpass',
   'c:\\users\\msi\\appdata\\local\\programs\\python\\python36-32\\lib\\getpass.py',
   'PYMODULE'),
  ('nturl2path',
   'c:\\users\\msi\\appdata\\local\\programs\\python\\python36-32\\lib\\nturl2path.py',
   'PYMODULE'),
  ('ftplib',
   'c:\\users\\msi\\appdata\\local\\programs\\python\\python36-32\\lib\\ftplib.py',
   'PYMODULE'),
  ('netrc',
   'c:\\users\\msi\\appdata\\local\\programs\\python\\python36-32\\lib\\netrc.py',
   'PYMODULE'),
  ('http.cookiejar',
   'c:\\users\\msi\\appdata\\local\\programs\\python\\python36-32\\lib\\http\\cookiejar.py',
   'PYMODULE'),
  ('urllib.response',
   'c:\\users\\msi\\appdata\\local\\programs\\python\\python36-32\\lib\\urllib\\response.py',
   'PYMODULE'),
  ('urllib.error',
   'c:\\users\\msi\\appdata\\local\\programs\\python\\python36-32\\lib\\urllib\\error.py',
   'PYMODULE'),
  ('xml.sax',
   'c:\\users\\msi\\appdata\\local\\programs\\python\\python36-32\\lib\\xml\\sax\\__init__.py',
   'PYMODULE'),
  ('xml.sax.handler',
   'c:\\users\\msi\\appdata\\local\\programs\\python\\python36-32\\lib\\xml\\sax\\handler.py',
   'PYMODULE'),
  ('xml.sax._exceptions',
   'c:\\users\\msi\\appdata\\local\\programs\\python\\python36-32\\lib\\xml\\sax\\_exceptions.py',
   'PYMODULE'),
  ('xml.sax.xmlreader',
   'c:\\users\\msi\\appdata\\local\\programs\\python\\python36-32\\lib\\xml\\sax\\xmlreader.py',
   'PYMODULE'),
  ('xml.parsers',
   'c:\\users\\msi\\appdata\\local\\programs\\python\\python36-32\\lib\\xml\\parsers\\__init__.py',
   'PYMODULE'),
  ('xml.parsers.expat',
   'c:\\users\\msi\\appdata\\local\\programs\\python\\python36-32\\lib\\xml\\parsers\\expat.py',
   'PYMODULE'),
  ('plistlib',
   'c:\\users\\msi\\appdata\\local\\programs\\python\\python36-32\\lib\\plistlib.py',
   'PYMODULE'),
  ('platform',
   'c:\\users\\msi\\appdata\\local\\programs\\python\\python36-32\\lib\\platform.py',
   'PYMODULE'),
  ('token',
   'c:\\users\\msi\\appdata\\local\\programs\\python\\python36-32\\lib\\token.py',
   'PYMODULE'),
  ('tokenize',
   'c:\\users\\msi\\appdata\\local\\programs\\python\\python36-32\\lib\\tokenize.py',
   'PYMODULE'),
  ('urllib.parse',
   'c:\\users\\msi\\appdata\\local\\programs\\python\\python36-32\\lib\\urllib\\parse.py',
   'PYMODULE'),
  ('tempfile',
   'c:\\users\\msi\\appdata\\local\\programs\\python\\python36-32\\lib\\tempfile.py',
   'PYMODULE'),
  ('tty',
   'c:\\users\\msi\\appdata\\local\\programs\\python\\python36-32\\lib\\tty.py',
   'PYMODULE'),
  ('pydoc_data',
   'c:\\users\\msi\\appdata\\local\\programs\\python\\python36-32\\lib\\pydoc_data\\__init__.py',
   'PYMODULE'),
  ('pydoc_data.topics',
   'c:\\users\\msi\\appdata\\local\\programs\\python\\python36-32\\lib\\pydoc_data\\topics.py',
   'PYMODULE'),
  ('html.entities',
   'c:\\users\\msi\\appdata\\local\\programs\\python\\python36-32\\lib\\html\\entities.py',
   'PYMODULE'),
  ('html',
   'c:\\users\\msi\\appdata\\local\\programs\\python\\python36-32\\lib\\html\\__init__.py',
   'PYMODULE'),
  ('ipaddress',
   'c:\\users\\msi\\appdata\\local\\programs\\python\\python36-32\\lib\\ipaddress.py',
   'PYMODULE'),
  ('ssl',
   'c:\\users\\msi\\appdata\\local\\programs\\python\\python36-32\\lib\\ssl.py',
   'PYMODULE'),
  ('http.client',
   'c:\\users\\msi\\appdata\\local\\programs\\python\\python36-32\\lib\\http\\client.py',
   'PYMODULE'),
  ('mimetypes',
   'c:\\users\\msi\\appdata\\local\\programs\\python\\python36-32\\lib\\mimetypes.py',
   'PYMODULE'),
  ('socketserver',
   'c:\\users\\msi\\appdata\\local\\programs\\python\\python36-32\\lib\\socketserver.py',
   'PYMODULE'),
  ('http',
   'c:\\users\\msi\\appdata\\local\\programs\\python\\python36-32\\lib\\http\\__init__.py',
   'PYMODULE'),
  ('http.server',
   'c:\\users\\msi\\appdata\\local\\programs\\python\\python36-32\\lib\\http\\server.py',
   'PYMODULE'),
  ('optparse',
   'c:\\users\\msi\\appdata\\local\\programs\\python\\python36-32\\lib\\optparse.py',
   'PYMODULE'),
  ('uu',
   'c:\\users\\msi\\appdata\\local\\programs\\python\\python36-32\\lib\\uu.py',
   'PYMODULE'),
  ('email.feedparser',
   'c:\\users\\msi\\appdata\\local\\programs\\python\\python36-32\\lib\\email\\feedparser.py',
   'PYMODULE'),
  ('email.parser',
   'c:\\users\\msi\\appdata\\local\\programs\\python\\python36-32\\lib\\email\\parser.py',
   'PYMODULE'),
  ('email',
   'c:\\users\\msi\\appdata\\local\\programs\\python\\python36-32\\lib\\email\\__init__.py',
   'PYMODULE'),
  ('calendar',
   'c:\\users\\msi\\appdata\\local\\programs\\python\\python36-32\\lib\\calendar.py',
   'PYMODULE'),
  ('email._parseaddr',
   'c:\\users\\msi\\appdata\\local\\programs\\python\\python36-32\\lib\\email\\_parseaddr.py',
   'PYMODULE'),
  ('email.utils',
   'c:\\users\\msi\\appdata\\local\\programs\\python\\python36-32\\lib\\email\\utils.py',
   'PYMODULE'),
  ('email.errors',
   'c:\\users\\msi\\appdata\\local\\programs\\python\\python36-32\\lib\\email\\errors.py',
   'PYMODULE'),
  ('email.header',
   'c:\\users\\msi\\appdata\\local\\programs\\python\\python36-32\\lib\\email\\header.py',
   'PYMODULE'),
  ('email._policybase',
   'c:\\users\\msi\\appdata\\local\\programs\\python\\python36-32\\lib\\email\\_policybase.py',
   'PYMODULE'),
  ('email.base64mime',
   'c:\\users\\msi\\appdata\\local\\programs\\python\\python36-32\\lib\\email\\base64mime.py',
   'PYMODULE'),
  ('email.encoders',
   'c:\\users\\msi\\appdata\\local\\programs\\python\\python36-32\\lib\\email\\encoders.py',
   'PYMODULE'),
  ('email.charset',
   'c:\\users\\msi\\appdata\\local\\programs\\python\\python36-32\\lib\\email\\charset.py',
   'PYMODULE'),
  ('base64',
   'c:\\users\\msi\\appdata\\local\\programs\\python\\python36-32\\lib\\base64.py',
   'PYMODULE'),
  ('email._encoded_words',
   'c:\\users\\msi\\appdata\\local\\programs\\python\\python36-32\\lib\\email\\_encoded_words.py',
   'PYMODULE'),
  ('hashlib',
   'c:\\users\\msi\\appdata\\local\\programs\\python\\python36-32\\lib\\hashlib.py',
   'PYMODULE'),
  ('bisect',
   'c:\\users\\msi\\appdata\\local\\programs\\python\\python36-32\\lib\\bisect.py',
   'PYMODULE'),
  ('random',
   'c:\\users\\msi\\appdata\\local\\programs\\python\\python36-32\\lib\\random.py',
   'PYMODULE'),
  ('email.generator',
   'c:\\users\\msi\\appdata\\local\\programs\\python\\python36-32\\lib\\email\\generator.py',
   'PYMODULE'),
  ('email.iterators',
   'c:\\users\\msi\\appdata\\local\\programs\\python\\python36-32\\lib\\email\\iterators.py',
   'PYMODULE'),
  ('urllib',
   'c:\\users\\msi\\appdata\\local\\programs\\python\\python36-32\\lib\\urllib\\__init__.py',
   'PYMODULE'),
  ('email._header_value_parser',
   'c:\\users\\msi\\appdata\\local\\programs\\python\\python36-32\\lib\\email\\_header_value_parser.py',
   'PYMODULE'),
  ('email.headerregistry',
   'c:\\users\\msi\\appdata\\local\\programs\\python\\python36-32\\lib\\email\\headerregistry.py',
   'PYMODULE'),
  ('email.quoprimime',
   'c:\\users\\msi\\appdata\\local\\programs\\python\\python36-32\\lib\\email\\quoprimime.py',
   'PYMODULE'),
  ('email.contentmanager',
   'c:\\users\\msi\\appdata\\local\\programs\\python\\python36-32\\lib\\email\\contentmanager.py',
   'PYMODULE'),
  ('email.policy',
   'c:\\users\\msi\\appdata\\local\\programs\\python\\python36-32\\lib\\email\\policy.py',
   'PYMODULE'),
  ('email.message',
   'c:\\users\\msi\\appdata\\local\\programs\\python\\python36-32\\lib\\email\\message.py',
   'PYMODULE'),
  ('bz2',
   'c:\\users\\msi\\appdata\\local\\programs\\python\\python36-32\\lib\\bz2.py',
   'PYMODULE'),
  ('lzma',
   'c:\\users\\msi\\appdata\\local\\programs\\python\\python36-32\\lib\\lzma.py',
   'PYMODULE'),
  ('_compression',
   'c:\\users\\msi\\appdata\\local\\programs\\python\\python36-32\\lib\\_compression.py',
   'PYMODULE'),
  ('gzip',
   'c:\\users\\msi\\appdata\\local\\programs\\python\\python36-32\\lib\\gzip.py',
   'PYMODULE'),
  ('tarfile',
   'c:\\users\\msi\\appdata\\local\\programs\\python\\python36-32\\lib\\tarfile.py',
   'PYMODULE'),
  ('py_compile',
   'c:\\users\\msi\\appdata\\local\\programs\\python\\python36-32\\lib\\py_compile.py',
   'PYMODULE'),
  ('zipfile',
   'c:\\users\\msi\\appdata\\local\\programs\\python\\python36-32\\lib\\zipfile.py',
   'PYMODULE'),
  ('shutil',
   'c:\\users\\msi\\appdata\\local\\programs\\python\\python36-32\\lib\\shutil.py',
   'PYMODULE'),
  ('socket',
   'c:\\users\\msi\\appdata\\local\\programs\\python\\python36-32\\lib\\socket.py',
   'PYMODULE'),
  ('webbrowser',
   'c:\\users\\msi\\appdata\\local\\programs\\python\\python36-32\\lib\\webbrowser.py',
   'PYMODULE'),
  ('pydoc',
   'c:\\users\\msi\\appdata\\local\\programs\\python\\python36-32\\lib\\pydoc.py',
   'PYMODULE'),
  ('pdb',
   'c:\\users\\msi\\appdata\\local\\programs\\python\\python36-32\\lib\\pdb.py',
   'PYMODULE'),
  ('unittest.util',
   'c:\\users\\msi\\appdata\\local\\programs\\python\\python36-32\\lib\\unittest\\util.py',
   'PYMODULE'),
  ('unittest.result',
   'c:\\users\\msi\\appdata\\local\\programs\\python\\python36-32\\lib\\unittest\\result.py',
   'PYMODULE'),
  ('string',
   'c:\\users\\msi\\appdata\\local\\programs\\python\\python36-32\\lib\\string.py',
   'PYMODULE'),
  ('logging',
   'c:\\users\\msi\\appdata\\local\\programs\\python\\python36-32\\lib\\logging\\__init__.py',
   'PYMODULE'),
  ('unittest.case',
   'c:\\users\\msi\\appdata\\local\\programs\\python\\python36-32\\lib\\unittest\\case.py',
   'PYMODULE'),
  ('unittest.suite',
   'c:\\users\\msi\\appdata\\local\\programs\\python\\python36-32\\lib\\unittest\\suite.py',
   'PYMODULE'),
  ('unittest.loader',
   'c:\\users\\msi\\appdata\\local\\programs\\python\\python36-32\\lib\\unittest\\loader.py',
   'PYMODULE'),
  ('unittest.runner',
   'c:\\users\\msi\\appdata\\local\\programs\\python\\python36-32\\lib\\unittest\\runner.py',
   'PYMODULE'),
  ('unittest.main',
   'c:\\users\\msi\\appdata\\local\\programs\\python\\python36-32\\lib\\unittest\\main.py',
   'PYMODULE'),
  ('unittest.signals',
   'c:\\users\\msi\\appdata\\local\\programs\\python\\python36-32\\lib\\unittest\\signals.py',
   'PYMODULE'),
  ('unittest',
   'c:\\users\\msi\\appdata\\local\\programs\\python\\python36-32\\lib\\unittest\\__init__.py',
   'PYMODULE'),
  ('doctest',
   'c:\\users\\msi\\appdata\\local\\programs\\python\\python36-32\\lib\\doctest.py',
   'PYMODULE'),
  ('textwrap',
   'c:\\users\\msi\\appdata\\local\\programs\\python\\python36-32\\lib\\textwrap.py',
   'PYMODULE'),
  ('argparse',
   'c:\\users\\msi\\appdata\\local\\programs\\python\\python36-32\\lib\\argparse.py',
   'PYMODULE'),
  ('pprint',
   'c:\\users\\msi\\appdata\\local\\programs\\python\\python36-32\\lib\\pprint.py',
   'PYMODULE'),
  ('pickle',
   'c:\\users\\msi\\appdata\\local\\programs\\python\\python36-32\\lib\\pickle.py',
   'PYMODULE'),
  ('tracemalloc',
   'c:\\users\\msi\\appdata\\local\\programs\\python\\python36-32\\lib\\tracemalloc.py',
   'PYMODULE'),
  ('warnings',
   'c:\\users\\msi\\appdata\\local\\programs\\python\\python36-32\\lib\\warnings.py',
   'PYMODULE'),
  ('enum',
   'c:\\users\\msi\\appdata\\local\\programs\\python\\python36-32\\lib\\enum.py',
   'PYMODULE'),
  ('signal',
   'c:\\users\\msi\\appdata\\local\\programs\\python\\python36-32\\lib\\signal.py',
   'PYMODULE'),
  ('contextlib',
   'c:\\users\\msi\\appdata\\local\\programs\\python\\python36-32\\lib\\contextlib.py',
   'PYMODULE'),
  ('_threading_local',
   'c:\\users\\msi\\appdata\\local\\programs\\python\\python36-32\\lib\\_threading_local.py',
   'PYMODULE'),
  ('threading',
   'c:\\users\\msi\\appdata\\local\\programs\\python\\python36-32\\lib\\threading.py',
   'PYMODULE'),
  ('selectors',
   'c:\\users\\msi\\appdata\\local\\programs\\python\\python36-32\\lib\\selectors.py',
   'PYMODULE'),
  ('dummy_threading',
   'c:\\users\\msi\\appdata\\local\\programs\\python\\python36-32\\lib\\dummy_threading.py',
   'PYMODULE'),
  ('subprocess',
   'c:\\users\\msi\\appdata\\local\\programs\\python\\python36-32\\lib\\subprocess.py',
   'PYMODULE'),
  ('os',
   'c:\\users\\msi\\appdata\\local\\programs\\python\\python36-32\\lib\\os.py',
   'PYMODULE'),
  ('struct',
   'c:\\users\\msi\\appdata\\local\\programs\\python\\python36-32\\lib\\struct.py',
   'PYMODULE'),
  ('gettext',
   'c:\\users\\msi\\appdata\\local\\programs\\python\\python36-32\\lib\\gettext.py',
   'PYMODULE'),
  ('getopt',
   'c:\\users\\msi\\appdata\\local\\programs\\python\\python36-32\\lib\\getopt.py',
   'PYMODULE'),
  ('quopri',
   'c:\\users\\msi\\appdata\\local\\programs\\python\\python36-32\\lib\\quopri.py',
   'PYMODULE'),
  ('stringprep',
   'c:\\users\\msi\\appdata\\local\\programs\\python\\python36-32\\lib\\stringprep.py',
   'PYMODULE'),
  ('_dummy_thread',
   'c:\\users\\msi\\appdata\\local\\programs\\python\\python36-32\\lib\\_dummy_thread.py',
   'PYMODULE'),
  ('copy',
   'c:\\users\\msi\\appdata\\local\\programs\\python\\python36-32\\lib\\copy.py',
   'PYMODULE'),
  ('Director', 'C:\\Users\\MSI\\project\\projectPG\\Director.py', 'PYMODULE'),
  ('TitleScene',
   'C:\\Users\\MSI\\project\\projectPG\\TitleScene.py',
   'PYMODULE'),
  ('Camera', 'C:\\Users\\MSI\\project\\projectPG\\Camera.py', 'PYMODULE'),
  ('check_value',
   'C:\\Users\\MSI\\project\\projectPG\\check_value.py',
   'PYMODULE'),
  ('SpriteSheet',
   'C:\\Users\\MSI\\project\\projectPG\\SpriteSheet.py',
   'PYMODULE'),
  ('Image', 'C:\\Users\\MSI\\project\\projectPG\\Image.py', 'PYMODULE'),
  ('json',
   'c:\\users\\msi\\appdata\\local\\programs\\python\\python36-32\\lib\\json\\__init__.py',
   'PYMODULE'),
  ('json.encoder',
   'c:\\users\\msi\\appdata\\local\\programs\\python\\python36-32\\lib\\json\\encoder.py',
   'PYMODULE'),
  ('json.decoder',
   'c:\\users\\msi\\appdata\\local\\programs\\python\\python36-32\\lib\\json\\decoder.py',
   'PYMODULE'),
  ('json.scanner',
   'c:\\users\\msi\\appdata\\local\\programs\\python\\python36-32\\lib\\json\\scanner.py',
   'PYMODULE'),
  ('Sprite', 'C:\\Users\\MSI\\project\\projectPG\\Sprite.py', 'PYMODULE'),
  ('DefaultScene',
   'C:\\Users\\MSI\\project\\projectPG\\DefaultScene.py',
   'PYMODULE'),
  ('GameScene', 'C:\\Users\\MSI\\project\\projectPG\\GameScene.py', 'PYMODULE'),
  ('Audio', 'C:\\Users\\MSI\\project\\projectPG\\Audio.py', 'PYMODULE'),
  ('pygame',
   'c:\\users\\msi\\appdata\\local\\programs\\python\\python36-32\\lib\\site-packages\\pygame\\__init__.py',
   'PYMODULE'),
  ('pygame.colordict',
   'c:\\users\\msi\\appdata\\local\\programs\\python\\python36-32\\lib\\site-packages\\pygame\\colordict.py',
   'PYMODULE'),
  ('pygame.macosx',
   'c:\\users\\msi\\appdata\\local\\programs\\python\\python36-32\\lib\\site-packages\\pygame\\macosx.py',
   'PYMODULE'),
  ('pygame.pkgdata',
   'c:\\users\\msi\\appdata\\local\\programs\\python\\python36-32\\lib\\site-packages\\pygame\\pkgdata.py',
   'PYMODULE'),
  ('pygame.sndarray',
   'c:\\users\\msi\\appdata\\local\\programs\\python\\python36-32\\lib\\site-packages\\pygame\\sndarray.py',
   'PYMODULE'),
  ('pygame._numpysndarray',
   'c:\\users\\msi\\appdata\\local\\programs\\python\\python36-32\\lib\\site-packages\\pygame\\_numpysndarray.py',
   'PYMODULE'),
  ('pygame.surfarray',
   'c:\\users\\msi\\appdata\\local\\programs\\python\\python36-32\\lib\\site-packages\\pygame\\surfarray.py',
   'PYMODULE'),
  ('pygame._numpysurfarray',
   'c:\\users\\msi\\appdata\\local\\programs\\python\\python36-32\\lib\\site-packages\\pygame\\_numpysurfarray.py',
   'PYMODULE'),
  ('pygame.sysfont',
   'c:\\users\\msi\\appdata\\local\\programs\\python\\python36-32\\lib\\site-packages\\pygame\\sysfont.py',
   'PYMODULE'),
  ('pygame.ftfont',
   'c:\\users\\msi\\appdata\\local\\programs\\python\\python36-32\\lib\\site-packages\\pygame\\ftfont.py',
   'PYMODULE'),
  ('pygame.threads',
   'c:\\users\\msi\\appdata\\local\\programs\\python\\python36-32\\lib\\site-packages\\pygame\\threads\\__init__.py',
   'PYMODULE'),
  ('pygame.sprite',
   'c:\\users\\msi\\appdata\\local\\programs\\python\\python36-32\\lib\\site-packages\\pygame\\sprite.py',
   'PYMODULE'),
  ('pygame.cursors',
   'c:\\users\\msi\\appdata\\local\\programs\\python\\python36-32\\lib\\site-packages\\pygame\\cursors.py',
   'PYMODULE'),
  ('pygame.compat',
   'c:\\users\\msi\\appdata\\local\\programs\\python\\python36-32\\lib\\site-packages\\pygame\\compat.py',
   'PYMODULE'),
  ('pygame.version',
   'c:\\users\\msi\\appdata\\local\\programs\\python\\python36-32\\lib\\site-packages\\pygame\\version.py',
   'PYMODULE')],
 [('python36.dll',
   'c:\\users\\msi\\appdata\\local\\programs\\python\\python36-32\\python36.dll',
   'BINARY'),
  ('VCRUNTIME140.dll',
   'c:\\users\\msi\\appdata\\local\\programs\\python\\python36-32\\VCRUNTIME140.dll',
   'BINARY'),
  ('pythoncom36.dll',
   'c:\\users\\msi\\appdata\\local\\programs\\python\\python36-32\\lib\\site-packages\\pywin32_system32\\pythoncom36.dll',
   'BINARY'),
  ('pywintypes36.dll',
   'c:\\users\\msi\\appdata\\local\\programs\\python\\python36-32\\lib\\site-packages\\pywin32_system32\\pywintypes36.dll',
   'BINARY'),
  ('_decimal',
   'c:\\users\\msi\\appdata\\local\\programs\\python\\python36-32\\DLLs\\_decimal.pyd',
   'EXTENSION'),
  ('_ctypes',
   'c:\\users\\msi\\appdata\\local\\programs\\python\\python36-32\\DLLs\\_ctypes.pyd',
   'EXTENSION'),
  ('_multiprocessing',
   'c:\\users\\msi\\appdata\\local\\programs\\python\\python36-32\\DLLs\\_multiprocessing.pyd',
   'EXTENSION'),
  ('win32trace',
   'c:\\users\\msi\\appdata\\local\\programs\\python\\python36-32\\lib\\site-packages\\win32\\win32trace.pyd',
   'EXTENSION'),
  ('win32ui',
   'c:\\users\\msi\\appdata\\local\\programs\\python\\python36-32\\lib\\site-packages\\Pythonwin\\win32ui.pyd',
   'EXTENSION'),
  ('_win32sysloader',
   'c:\\users\\msi\\appdata\\local\\programs\\python\\python36-32\\lib\\site-packages\\win32\\_win32sysloader.pyd',
   'EXTENSION'),
  ('win32api',
   'c:\\users\\msi\\appdata\\local\\programs\\python\\python36-32\\lib\\site-packages\\win32\\win32api.pyd',
   'EXTENSION'),
  ('win32wnet',
   'c:\\users\\msi\\appdata\\local\\programs\\python\\python36-32\\lib\\site-packages\\win32\\win32wnet.pyd',
   'EXTENSION'),
  ('win32com.shell.shell',
   'c:\\users\\msi\\appdata\\local\\programs\\python\\python36-32\\lib\\site-packages\\win32comext\\shell\\shell.pyd',
   'EXTENSION'),
  ('_ssl',
   'c:\\users\\msi\\appdata\\local\\programs\\python\\python36-32\\DLLs\\_ssl.pyd',
   'EXTENSION'),
  ('pyexpat',
   'c:\\users\\msi\\appdata\\local\\programs\\python\\python36-32\\DLLs\\pyexpat.pyd',
   'EXTENSION'),
  ('_hashlib',
   'c:\\users\\msi\\appdata\\local\\programs\\python\\python36-32\\DLLs\\_hashlib.pyd',
   'EXTENSION'),
  ('_bz2',
   'c:\\users\\msi\\appdata\\local\\programs\\python\\python36-32\\DLLs\\_bz2.pyd',
   'EXTENSION'),
  ('_lzma',
   'c:\\users\\msi\\appdata\\local\\programs\\python\\python36-32\\DLLs\\_lzma.pyd',
   'EXTENSION'),
  ('_socket',
   'c:\\users\\msi\\appdata\\local\\programs\\python\\python36-32\\DLLs\\_socket.pyd',
   'EXTENSION'),
  ('select',
   'c:\\users\\msi\\appdata\\local\\programs\\python\\python36-32\\DLLs\\select.pyd',
   'EXTENSION'),
  ('unicodedata',
   'c:\\users\\msi\\appdata\\local\\programs\\python\\python36-32\\DLLs\\unicodedata.pyd',
   'EXTENSION'),
  ('pygame.imageext',
   'c:\\users\\msi\\appdata\\local\\programs\\python\\python36-32\\lib\\site-packages\\pygame\\imageext.cp36-win32.pyd',
   'EXTENSION'),
  ('pygame.fastevent',
   'c:\\users\\msi\\appdata\\local\\programs\\python\\python36-32\\lib\\site-packages\\pygame\\fastevent.cp36-win32.pyd',
   'EXTENSION'),
  ('pygame.scrap',
   'c:\\users\\msi\\appdata\\local\\programs\\python\\python36-32\\lib\\site-packages\\pygame\\scrap.cp36-win32.pyd',
   'EXTENSION'),
  ('pygame.mixer',
   'c:\\users\\msi\\appdata\\local\\programs\\python\\python36-32\\lib\\site-packages\\pygame\\mixer.cp36-win32.pyd',
   'EXTENSION'),
  ('pygame.mixer_music',
   'c:\\users\\msi\\appdata\\local\\programs\\python\\python36-32\\lib\\site-packages\\pygame\\mixer_music.cp36-win32.pyd',
   'EXTENSION'),
  ('pygame.font',
   'c:\\users\\msi\\appdata\\local\\programs\\python\\python36-32\\lib\\site-packages\\pygame\\font.cp36-win32.pyd',
   'EXTENSION'),
  ('pygame._freetype',
   'c:\\users\\msi\\appdata\\local\\programs\\python\\python36-32\\lib\\site-packages\\pygame\\_freetype.cp36-win32.pyd',
   'EXTENSION'),
  ('pygame.transform',
   'c:\\users\\msi\\appdata\\local\\programs\\python\\python36-32\\lib\\site-packages\\pygame\\transform.cp36-win32.pyd',
   'EXTENSION'),
  ('pygame.time',
   'c:\\users\\msi\\appdata\\local\\programs\\python\\python36-32\\lib\\site-packages\\pygame\\time.cp36-win32.pyd',
   'EXTENSION'),
  ('pygame.overlay',
   'c:\\users\\msi\\appdata\\local\\programs\\python\\python36-32\\lib\\site-packages\\pygame\\overlay.cp36-win32.pyd',
   'EXTENSION'),
  ('pygame.pixelarray',
   'c:\\users\\msi\\appdata\\local\\programs\\python\\python36-32\\lib\\site-packages\\pygame\\pixelarray.cp36-win32.pyd',
   'EXTENSION'),
  ('pygame.mask',
   'c:\\users\\msi\\appdata\\local\\programs\\python\\python36-32\\lib\\site-packages\\pygame\\mask.cp36-win32.pyd',
   'EXTENSION'),
  ('pygame.surface',
   'c:\\users\\msi\\appdata\\local\\programs\\python\\python36-32\\lib\\site-packages\\pygame\\surface.cp36-win32.pyd',
   'EXTENSION'),
  ('pygame.pixelcopy',
   'c:\\users\\msi\\appdata\\local\\programs\\python\\python36-32\\lib\\site-packages\\pygame\\pixelcopy.cp36-win32.pyd',
   'EXTENSION'),
  ('pygame.mouse',
   'c:\\users\\msi\\appdata\\local\\programs\\python\\python36-32\\lib\\site-packages\\pygame\\mouse.cp36-win32.pyd',
   'EXTENSION'),
  ('pygame.key',
   'c:\\users\\msi\\appdata\\local\\programs\\python\\python36-32\\lib\\site-packages\\pygame\\key.cp36-win32.pyd',
   'EXTENSION'),
  ('pygame.joystick',
   'c:\\users\\msi\\appdata\\local\\programs\\python\\python36-32\\lib\\site-packages\\pygame\\joystick.cp36-win32.pyd',
   'EXTENSION'),
  ('pygame.image',
   'c:\\users\\msi\\appdata\\local\\programs\\python\\python36-32\\lib\\site-packages\\pygame\\image.cp36-win32.pyd',
   'EXTENSION'),
  ('pygame.event',
   'c:\\users\\msi\\appdata\\local\\programs\\python\\python36-32\\lib\\site-packages\\pygame\\event.cp36-win32.pyd',
   'EXTENSION'),
  ('pygame.draw',
   'c:\\users\\msi\\appdata\\local\\programs\\python\\python36-32\\lib\\site-packages\\pygame\\draw.cp36-win32.pyd',
   'EXTENSION'),
  ('pygame.display',
   'c:\\users\\msi\\appdata\\local\\programs\\python\\python36-32\\lib\\site-packages\\pygame\\display.cp36-win32.pyd',
   'EXTENSION'),
  ('pygame.cdrom',
   'c:\\users\\msi\\appdata\\local\\programs\\python\\python36-32\\lib\\site-packages\\pygame\\cdrom.cp36-win32.pyd',
   'EXTENSION'),
  ('pygame.math',
   'c:\\users\\msi\\appdata\\local\\programs\\python\\python36-32\\lib\\site-packages\\pygame\\math.cp36-win32.pyd',
   'EXTENSION'),
  ('pygame.bufferproxy',
   'c:\\users\\msi\\appdata\\local\\programs\\python\\python36-32\\lib\\site-packages\\pygame\\bufferproxy.cp36-win32.pyd',
   'EXTENSION'),
  ('pygame.color',
   'c:\\users\\msi\\appdata\\local\\programs\\python\\python36-32\\lib\\site-packages\\pygame\\color.cp36-win32.pyd',
   'EXTENSION'),
  ('pygame.surflock',
   'c:\\users\\msi\\appdata\\local\\programs\\python\\python36-32\\lib\\site-packages\\pygame\\surflock.cp36-win32.pyd',
   'EXTENSION'),
  ('pygame.rwobject',
   'c:\\users\\msi\\appdata\\local\\programs\\python\\python36-32\\lib\\site-packages\\pygame\\rwobject.cp36-win32.pyd',
   'EXTENSION'),
  ('pygame.rect',
   'c:\\users\\msi\\appdata\\local\\programs\\python\\python36-32\\lib\\site-packages\\pygame\\rect.cp36-win32.pyd',
   'EXTENSION'),
  ('pygame.constants',
   'c:\\users\\msi\\appdata\\local\\programs\\python\\python36-32\\lib\\site-packages\\pygame\\constants.cp36-win32.pyd',
   'EXTENSION'),
  ('pygame.base',
   'c:\\users\\msi\\appdata\\local\\programs\\python\\python36-32\\lib\\site-packages\\pygame\\base.cp36-win32.pyd',
   'EXTENSION'),
  ('mfc140u.dll',
   'c:\\users\\msi\\appdata\\local\\programs\\python\\python36-32\\lib\\site-packages\\Pythonwin\\mfc140u.dll',
   'BINARY'),
  ('libpng16-16.dll',
   'c:\\users\\msi\\appdata\\local\\programs\\python\\python36-32\\lib\\site-packages\\pygame\\libpng16-16.dll',
   'BINARY'),
  ('SDL_image.dll',
   'c:\\users\\msi\\appdata\\local\\programs\\python\\python36-32\\lib\\site-packages\\pygame\\SDL_image.dll',
   'BINARY'),
  ('SDL.dll',
   'c:\\users\\msi\\appdata\\local\\programs\\python\\python36-32\\lib\\site-packages\\pygame\\SDL.dll',
   'BINARY'),
  ('libjpeg-8.dll',
   'c:\\users\\msi\\appdata\\local\\programs\\python\\python36-32\\lib\\site-packages\\pygame\\libjpeg-8.dll',
   'BINARY'),
  ('SDL_mixer.dll',
   'c:\\users\\msi\\appdata\\local\\programs\\python\\python36-32\\lib\\site-packages\\pygame\\SDL_mixer.dll',
   'BINARY'),
  ('SDL_ttf.dll',
   'c:\\users\\msi\\appdata\\local\\programs\\python\\python36-32\\lib\\site-packages\\pygame\\SDL_ttf.dll',
   'BINARY'),
  ('libfreetype-6.dll',
   'c:\\users\\msi\\appdata\\local\\programs\\python\\python36-32\\lib\\site-packages\\pygame\\libfreetype-6.dll',
   'BINARY'),
  ('libgcc_s_sjlj-1.dll',
   'c:\\users\\msi\\appdata\\local\\programs\\python\\python36-32\\lib\\site-packages\\pygame\\libgcc_s_sjlj-1.dll',
   'BINARY'),
  ('zlib1.dll',
   'c:\\users\\msi\\appdata\\local\\programs\\python\\python36-32\\lib\\site-packages\\pygame\\zlib1.dll',
   'BINARY'),
  ('libwebp-5.dll',
   'c:\\users\\msi\\appdata\\local\\programs\\python\\python36-32\\lib\\site-packages\\pygame\\libwebp-5.dll',
   'BINARY'),
  ('libtiff-5.dll',
   'c:\\users\\msi\\appdata\\local\\programs\\python\\python36-32\\lib\\site-packages\\pygame\\libtiff-5.dll',
   'BINARY'),
  ('libvorbisfile-3.dll',
   'c:\\users\\msi\\appdata\\local\\programs\\python\\python36-32\\lib\\site-packages\\pygame\\libvorbisfile-3.dll',
   'BINARY'),
  ('libmpg123-0.dll',
   'c:\\users\\msi\\appdata\\local\\programs\\python\\python36-32\\lib\\site-packages\\pygame\\libmpg123-0.dll',
   'BINARY'),
  ('libogg-0.dll',
   'c:\\users\\msi\\appdata\\local\\programs\\python\\python36-32\\lib\\site-packages\\pygame\\libogg-0.dll',
   'BINARY'),
  ('libvorbis-0.dll',
   'c:\\users\\msi\\appdata\\local\\programs\\python\\python36-32\\lib\\site-packages\\pygame\\libvorbis-0.dll',
   'BINARY')],
 [],
 [],
 [('base_library.zip',
   'C:\\Users\\MSI\\project\\projectPG\\build\\main\\base_library.zip',
   'DATA'),
  ('Include\\pyconfig.h',
   'c:\\users\\msi\\appdata\\local\\programs\\python\\python36-32\\Include\\pyconfig.h',
   'DATA'),
  ('lib2to3\\Grammar3.6.6.final.0.pickle',
   'c:\\users\\msi\\appdata\\local\\programs\\python\\python36-32\\lib\\lib2to3\\Grammar3.6.6.final.0.pickle',
   'DATA'),
  ('lib2to3\\Grammar.txt',
   'c:\\users\\msi\\appdata\\local\\programs\\python\\python36-32\\lib\\lib2to3\\Grammar.txt',
   'DATA'),
  ('lib2to3\\tests\\data\\README',
   'c:\\users\\msi\\appdata\\local\\programs\\python\\python36-32\\lib\\lib2to3\\tests\\data\\README',
   'DATA'),
  ('lib2to3\\PatternGrammar.txt',
   'c:\\users\\msi\\appdata\\local\\programs\\python\\python36-32\\lib\\lib2to3\\PatternGrammar.txt',
   'DATA'),
  ('lib2to3\\PatternGrammar3.6.6.final.0.pickle',
   'c:\\users\\msi\\appdata\\local\\programs\\python\\python36-32\\lib\\lib2to3\\PatternGrammar3.6.6.final.0.pickle',
   'DATA')],
 [])
