('C:\\Users\\MSI\\project\\projectPG\\build\\main\\out00-PKG.pkg',
 {'BINARY': 1,
  'DATA': 1,
  'EXECUTABLE': 1,
  'EXTENSION': 1,
  'PYMODULE': 1,
  'PYSOURCE': 1,
  'PYZ': 0},
 [('out00-PYZ.pyz',
   'C:\\Users\\MSI\\project\\projectPG\\build\\main\\out00-PYZ.pyz',
   'PYZ'),
  ('struct',
   'c:\\users\\msi\\appdata\\local\\programs\\python\\python36-32\\lib\\struct.pyo',
   'PYMODULE'),
  ('pyimod01_os_path',
   'c:\\users\\msi\\appdata\\local\\programs\\python\\python36-32\\lib\\site-packages\\PyInstaller\\loader\\pyimod01_os_path.pyc',
   'PYMODULE'),
  ('pyimod02_archive',
   'c:\\users\\msi\\appdata\\local\\programs\\python\\python36-32\\lib\\site-packages\\PyInstaller\\loader\\pyimod02_archive.pyc',
   'PYMODULE'),
  ('pyimod03_importers',
   'c:\\users\\msi\\appdata\\local\\programs\\python\\python36-32\\lib\\site-packages\\PyInstaller\\loader\\pyimod03_importers.pyc',
   'PYMODULE'),
  ('pyiboot01_bootstrap',
   'c:\\users\\msi\\appdata\\local\\programs\\python\\python36-32\\lib\\site-packages\\PyInstaller\\loader\\pyiboot01_bootstrap.py',
   'PYSOURCE'),
  ('pyi_rth_pkgres',
   'c:\\users\\msi\\appdata\\local\\programs\\python\\python36-32\\lib\\site-packages\\PyInstaller\\loader\\rthooks\\pyi_rth_pkgres.py',
   'PYSOURCE'),
  ('pyi_rth_win32comgenpy',
   'c:\\users\\msi\\appdata\\local\\programs\\python\\python36-32\\lib\\site-packages\\PyInstaller\\loader\\rthooks\\pyi_rth_win32comgenpy.py',
   'PYSOURCE'),
  ('pyi_rth_multiprocessing',
   'c:\\users\\msi\\appdata\\local\\programs\\python\\python36-32\\lib\\site-packages\\PyInstaller\\loader\\rthooks\\pyi_rth_multiprocessing.py',
   'PYSOURCE'),
  ('main', 'C:\\Users\\MSI\\project\\projectPG\\main.py', 'PYSOURCE'),
  ('python36.dll',
   'c:\\users\\msi\\appdata\\local\\programs\\python\\python36-32\\python36.dll',
   'BINARY'),
  ('VCRUNTIME140.dll',
   'c:\\users\\msi\\appdata\\local\\programs\\python\\python36-32\\VCRUNTIME140.dll',
   'BINARY'),
  ('pythoncom36.dll',
   'c:\\users\\msi\\appdata\\local\\programs\\python\\python36-32\\lib\\site-packages\\pywin32_system32\\pythoncom36.dll',
   'BINARY'),
  ('pywintypes36.dll',
   'c:\\users\\msi\\appdata\\local\\programs\\python\\python36-32\\lib\\site-packages\\pywin32_system32\\pywintypes36.dll',
   'BINARY'),
  ('_decimal',
   'c:\\users\\msi\\appdata\\local\\programs\\python\\python36-32\\DLLs\\_decimal.pyd',
   'EXTENSION'),
  ('_ctypes',
   'c:\\users\\msi\\appdata\\local\\programs\\python\\python36-32\\DLLs\\_ctypes.pyd',
   'EXTENSION'),
  ('_multiprocessing',
   'c:\\users\\msi\\appdata\\local\\programs\\python\\python36-32\\DLLs\\_multiprocessing.pyd',
   'EXTENSION'),
  ('win32trace',
   'c:\\users\\msi\\appdata\\local\\programs\\python\\python36-32\\lib\\site-packages\\win32\\win32trace.pyd',
   'EXTENSION'),
  ('win32ui',
   'c:\\users\\msi\\appdata\\local\\programs\\python\\python36-32\\lib\\site-packages\\Pythonwin\\win32ui.pyd',
   'EXTENSION'),
  ('_win32sysloader',
   'c:\\users\\msi\\appdata\\local\\programs\\python\\python36-32\\lib\\site-packages\\win32\\_win32sysloader.pyd',
   'EXTENSION'),
  ('win32api',
   'c:\\users\\msi\\appdata\\local\\programs\\python\\python36-32\\lib\\site-packages\\win32\\win32api.pyd',
   'EXTENSION'),
  ('win32wnet',
   'c:\\users\\msi\\appdata\\local\\programs\\python\\python36-32\\lib\\site-packages\\win32\\win32wnet.pyd',
   'EXTENSION'),
  ('win32com.shell.shell',
   'c:\\users\\msi\\appdata\\local\\programs\\python\\python36-32\\lib\\site-packages\\win32comext\\shell\\shell.pyd',
   'EXTENSION'),
  ('_ssl',
   'c:\\users\\msi\\appdata\\local\\programs\\python\\python36-32\\DLLs\\_ssl.pyd',
   'EXTENSION'),
  ('pyexpat',
   'c:\\users\\msi\\appdata\\local\\programs\\python\\python36-32\\DLLs\\pyexpat.pyd',
   'EXTENSION'),
  ('_hashlib',
   'c:\\users\\msi\\appdata\\local\\programs\\python\\python36-32\\DLLs\\_hashlib.pyd',
   'EXTENSION'),
  ('_bz2',
   'c:\\users\\msi\\appdata\\local\\programs\\python\\python36-32\\DLLs\\_bz2.pyd',
   'EXTENSION'),
  ('_lzma',
   'c:\\users\\msi\\appdata\\local\\programs\\python\\python36-32\\DLLs\\_lzma.pyd',
   'EXTENSION'),
  ('_socket',
   'c:\\users\\msi\\appdata\\local\\programs\\python\\python36-32\\DLLs\\_socket.pyd',
   'EXTENSION'),
  ('select',
   'c:\\users\\msi\\appdata\\local\\programs\\python\\python36-32\\DLLs\\select.pyd',
   'EXTENSION'),
  ('unicodedata',
   'c:\\users\\msi\\appdata\\local\\programs\\python\\python36-32\\DLLs\\unicodedata.pyd',
   'EXTENSION'),
  ('pygame.imageext',
   'c:\\users\\msi\\appdata\\local\\programs\\python\\python36-32\\lib\\site-packages\\pygame\\imageext.cp36-win32.pyd',
   'EXTENSION'),
  ('pygame.fastevent',
   'c:\\users\\msi\\appdata\\local\\programs\\python\\python36-32\\lib\\site-packages\\pygame\\fastevent.cp36-win32.pyd',
   'EXTENSION'),
  ('pygame.scrap',
   'c:\\users\\msi\\appdata\\local\\programs\\python\\python36-32\\lib\\site-packages\\pygame\\scrap.cp36-win32.pyd',
   'EXTENSION'),
  ('pygame.mixer',
   'c:\\users\\msi\\appdata\\local\\programs\\python\\python36-32\\lib\\site-packages\\pygame\\mixer.cp36-win32.pyd',
   'EXTENSION'),
  ('pygame.mixer_music',
   'c:\\users\\msi\\appdata\\local\\programs\\python\\python36-32\\lib\\site-packages\\pygame\\mixer_music.cp36-win32.pyd',
   'EXTENSION'),
  ('pygame.font',
   'c:\\users\\msi\\appdata\\local\\programs\\python\\python36-32\\lib\\site-packages\\pygame\\font.cp36-win32.pyd',
   'EXTENSION'),
  ('pygame._freetype',
   'c:\\users\\msi\\appdata\\local\\programs\\python\\python36-32\\lib\\site-packages\\pygame\\_freetype.cp36-win32.pyd',
   'EXTENSION'),
  ('pygame.transform',
   'c:\\users\\msi\\appdata\\local\\programs\\python\\python36-32\\lib\\site-packages\\pygame\\transform.cp36-win32.pyd',
   'EXTENSION'),
  ('pygame.time',
   'c:\\users\\msi\\appdata\\local\\programs\\python\\python36-32\\lib\\site-packages\\pygame\\time.cp36-win32.pyd',
   'EXTENSION'),
  ('pygame.overlay',
   'c:\\users\\msi\\appdata\\local\\programs\\python\\python36-32\\lib\\site-packages\\pygame\\overlay.cp36-win32.pyd',
   'EXTENSION'),
  ('pygame.pixelarray',
   'c:\\users\\msi\\appdata\\local\\programs\\python\\python36-32\\lib\\site-packages\\pygame\\pixelarray.cp36-win32.pyd',
   'EXTENSION'),
  ('pygame.mask',
   'c:\\users\\msi\\appdata\\local\\programs\\python\\python36-32\\lib\\site-packages\\pygame\\mask.cp36-win32.pyd',
   'EXTENSION'),
  ('pygame.surface',
   'c:\\users\\msi\\appdata\\local\\programs\\python\\python36-32\\lib\\site-packages\\pygame\\surface.cp36-win32.pyd',
   'EXTENSION'),
  ('pygame.pixelcopy',
   'c:\\users\\msi\\appdata\\local\\programs\\python\\python36-32\\lib\\site-packages\\pygame\\pixelcopy.cp36-win32.pyd',
   'EXTENSION'),
  ('pygame.mouse',
   'c:\\users\\msi\\appdata\\local\\programs\\python\\python36-32\\lib\\site-packages\\pygame\\mouse.cp36-win32.pyd',
   'EXTENSION'),
  ('pygame.key',
   'c:\\users\\msi\\appdata\\local\\programs\\python\\python36-32\\lib\\site-packages\\pygame\\key.cp36-win32.pyd',
   'EXTENSION'),
  ('pygame.joystick',
   'c:\\users\\msi\\appdata\\local\\programs\\python\\python36-32\\lib\\site-packages\\pygame\\joystick.cp36-win32.pyd',
   'EXTENSION'),
  ('pygame.image',
   'c:\\users\\msi\\appdata\\local\\programs\\python\\python36-32\\lib\\site-packages\\pygame\\image.cp36-win32.pyd',
   'EXTENSION'),
  ('pygame.event',
   'c:\\users\\msi\\appdata\\local\\programs\\python\\python36-32\\lib\\site-packages\\pygame\\event.cp36-win32.pyd',
   'EXTENSION'),
  ('pygame.draw',
   'c:\\users\\msi\\appdata\\local\\programs\\python\\python36-32\\lib\\site-packages\\pygame\\draw.cp36-win32.pyd',
   'EXTENSION'),
  ('pygame.display',
   'c:\\users\\msi\\appdata\\local\\programs\\python\\python36-32\\lib\\site-packages\\pygame\\display.cp36-win32.pyd',
   'EXTENSION'),
  ('pygame.cdrom',
   'c:\\users\\msi\\appdata\\local\\programs\\python\\python36-32\\lib\\site-packages\\pygame\\cdrom.cp36-win32.pyd',
   'EXTENSION'),
  ('pygame.math',
   'c:\\users\\msi\\appdata\\local\\programs\\python\\python36-32\\lib\\site-packages\\pygame\\math.cp36-win32.pyd',
   'EXTENSION'),
  ('pygame.bufferproxy',
   'c:\\users\\msi\\appdata\\local\\programs\\python\\python36-32\\lib\\site-packages\\pygame\\bufferproxy.cp36-win32.pyd',
   'EXTENSION'),
  ('pygame.color',
   'c:\\users\\msi\\appdata\\local\\programs\\python\\python36-32\\lib\\site-packages\\pygame\\color.cp36-win32.pyd',
   'EXTENSION'),
  ('pygame.surflock',
   'c:\\users\\msi\\appdata\\local\\programs\\python\\python36-32\\lib\\site-packages\\pygame\\surflock.cp36-win32.pyd',
   'EXTENSION'),
  ('pygame.rwobject',
   'c:\\users\\msi\\appdata\\local\\programs\\python\\python36-32\\lib\\site-packages\\pygame\\rwobject.cp36-win32.pyd',
   'EXTENSION'),
  ('pygame.rect',
   'c:\\users\\msi\\appdata\\local\\programs\\python\\python36-32\\lib\\site-packages\\pygame\\rect.cp36-win32.pyd',
   'EXTENSION'),
  ('pygame.constants',
   'c:\\users\\msi\\appdata\\local\\programs\\python\\python36-32\\lib\\site-packages\\pygame\\constants.cp36-win32.pyd',
   'EXTENSION'),
  ('pygame.base',
   'c:\\users\\msi\\appdata\\local\\programs\\python\\python36-32\\lib\\site-packages\\pygame\\base.cp36-win32.pyd',
   'EXTENSION'),
  ('mfc140u.dll',
   'c:\\users\\msi\\appdata\\local\\programs\\python\\python36-32\\lib\\site-packages\\Pythonwin\\mfc140u.dll',
   'BINARY'),
  ('libpng16-16.dll',
   'c:\\users\\msi\\appdata\\local\\programs\\python\\python36-32\\lib\\site-packages\\pygame\\libpng16-16.dll',
   'BINARY'),
  ('SDL_image.dll',
   'c:\\users\\msi\\appdata\\local\\programs\\python\\python36-32\\lib\\site-packages\\pygame\\SDL_image.dll',
   'BINARY'),
  ('SDL.dll',
   'c:\\users\\msi\\appdata\\local\\programs\\python\\python36-32\\lib\\site-packages\\pygame\\SDL.dll',
   'BINARY'),
  ('libjpeg-8.dll',
   'c:\\users\\msi\\appdata\\local\\programs\\python\\python36-32\\lib\\site-packages\\pygame\\libjpeg-8.dll',
   'BINARY'),
  ('SDL_mixer.dll',
   'c:\\users\\msi\\appdata\\local\\programs\\python\\python36-32\\lib\\site-packages\\pygame\\SDL_mixer.dll',
   'BINARY'),
  ('SDL_ttf.dll',
   'c:\\users\\msi\\appdata\\local\\programs\\python\\python36-32\\lib\\site-packages\\pygame\\SDL_ttf.dll',
   'BINARY'),
  ('libfreetype-6.dll',
   'c:\\users\\msi\\appdata\\local\\programs\\python\\python36-32\\lib\\site-packages\\pygame\\libfreetype-6.dll',
   'BINARY'),
  ('libgcc_s_sjlj-1.dll',
   'c:\\users\\msi\\appdata\\local\\programs\\python\\python36-32\\lib\\site-packages\\pygame\\libgcc_s_sjlj-1.dll',
   'BINARY'),
  ('zlib1.dll',
   'c:\\users\\msi\\appdata\\local\\programs\\python\\python36-32\\lib\\site-packages\\pygame\\zlib1.dll',
   'BINARY'),
  ('libwebp-5.dll',
   'c:\\users\\msi\\appdata\\local\\programs\\python\\python36-32\\lib\\site-packages\\pygame\\libwebp-5.dll',
   'BINARY'),
  ('libtiff-5.dll',
   'c:\\users\\msi\\appdata\\local\\programs\\python\\python36-32\\lib\\site-packages\\pygame\\libtiff-5.dll',
   'BINARY'),
  ('libvorbisfile-3.dll',
   'c:\\users\\msi\\appdata\\local\\programs\\python\\python36-32\\lib\\site-packages\\pygame\\libvorbisfile-3.dll',
   'BINARY'),
  ('libmpg123-0.dll',
   'c:\\users\\msi\\appdata\\local\\programs\\python\\python36-32\\lib\\site-packages\\pygame\\libmpg123-0.dll',
   'BINARY'),
  ('libogg-0.dll',
   'c:\\users\\msi\\appdata\\local\\programs\\python\\python36-32\\lib\\site-packages\\pygame\\libogg-0.dll',
   'BINARY'),
  ('libvorbis-0.dll',
   'c:\\users\\msi\\appdata\\local\\programs\\python\\python36-32\\lib\\site-packages\\pygame\\libvorbis-0.dll',
   'BINARY'),
  ('base_library.zip',
   'C:\\Users\\MSI\\project\\projectPG\\build\\main\\base_library.zip',
   'DATA'),
  ('Include\\pyconfig.h',
   'c:\\users\\msi\\appdata\\local\\programs\\python\\python36-32\\Include\\pyconfig.h',
   'DATA'),
  ('lib2to3\\Grammar3.6.6.final.0.pickle',
   'c:\\users\\msi\\appdata\\local\\programs\\python\\python36-32\\lib\\lib2to3\\Grammar3.6.6.final.0.pickle',
   'DATA'),
  ('lib2to3\\Grammar.txt',
   'c:\\users\\msi\\appdata\\local\\programs\\python\\python36-32\\lib\\lib2to3\\Grammar.txt',
   'DATA'),
  ('lib2to3\\tests\\data\\README',
   'c:\\users\\msi\\appdata\\local\\programs\\python\\python36-32\\lib\\lib2to3\\tests\\data\\README',
   'DATA'),
  ('lib2to3\\PatternGrammar.txt',
   'c:\\users\\msi\\appdata\\local\\programs\\python\\python36-32\\lib\\lib2to3\\PatternGrammar.txt',
   'DATA'),
  ('lib2to3\\PatternGrammar3.6.6.final.0.pickle',
   'c:\\users\\msi\\appdata\\local\\programs\\python\\python36-32\\lib\\lib2to3\\PatternGrammar3.6.6.final.0.pickle',
   'DATA'),
  ('main.exe.manifest',
   'C:\\Users\\MSI\\project\\projectPG\\build\\main\\main.exe.manifest',
   'BINARY'),
  ('pyi-windows-manifest-filename main.exe.manifest', '', 'OPTION')],
 False,
 False,
 False)
